Data Mining Project
…
Third Part - Predictive Modeling

We start preparing the dataset that will be predicted.

First add the week day and cut the unuseful data. We group the data by beat, week day and hour, and calculate the average number of offenses per beat and weekday.

policeData<-mutate(policeData,day=day(Date),wday=wday(Date,label=TRUE))
group_by(policeData, Beat, wday, Hour)%>%summarise(n_offenses=mean(n_offenses))

## Source: local data frame [7,012 x 4]
## Groups: Beat, wday [?]
## 
##     Beat  wday  Hour n_offenses
##    <chr> <ord> <dbl>      <dbl>
## 1  10H10   Sun    13          1
## 2  10H10   Sun    16          1
## 3  10H10   Sun    20          1
## 4  10H10   Mon     1          1
## 5  10H10   Mon     5          1
## 6  10H10   Mon     9          1
## 7  10H10   Mon    13          1
## 8  10H10   Mon    19          1
## 9  10H10   Mon    22          1
## 10 10H10  Tues     0          1
## # ... with 7,002 more rows
…
policeDataTest$shift<-NA
policeDataTest$shift[policeDataTest$Hour>=8 & policeDataTest$Hour <12]<-"shift1"
policeDataTest$shift[policeDataTest$Hour>=12 & policeDataTest$Hour <19]<-"shift2"
policeDataTest$shift[policeDataTest$Hour>=19 & policeDataTest$Hour <24]<-"shift3"
policeDataTest$shift[policeDataTest$Hour>=0 & policeDataTest$Hour <8]<-"shift3"

Swapping the last two columns and cancel the information about the Hour

policeDataTest<-policeDataTest[c("Beat","wday", "shift", "n_offenses")]
policeDataTest$Beat<-factor(policeDataTest$Beat)
policeDataTest$shift<-factor(policeDataTest$shift)
group_by(policeDataTest, Beat, wday, shift)%>%summarise(n_offenses=mean(n_offenses))

## Source: local data frame [2,107 x 4]
## Groups: Beat, wday [?]
## 
##      Beat  wday  shift n_offenses
##    <fctr> <ord> <fctr>      <dbl>
## 1   10H10   Sun shift2          1
## 2   10H10   Sun shift3          1
## 3   10H10   Mon shift1          1
## 4   10H10   Mon shift2          1
## 5   10H10   Mon shift3          1
## 6   10H10  Tues shift1          1
## 7   10H10  Tues shift2          1
## 8   10H10  Tues shift3          1
## 9   10H10   Wed shift1          1
## 10  10H10   Wed shift2          1
## # ... with 2,097 more rows

Extract the samples for the training and test dataset.

splitVal <- 0.7
set.seed(1234)
sample.tr <-sample(1:nrow(policeDataTest),as.integer(splitVal*nrow(policeDataTest)))
#train
policeDataTest[sample.tr, ] 

## Source: local data frame [1,474 x 4]
## Groups: Beat, wday [732]
## 
##      Beat  wday  shift n_offenses
##    <fctr> <ord> <fctr>      <dbl>
## 1   11H50   Sat shift2          1
## 2   24C20 Thurs shift2          1
## 3   23J50   Sun shift2          1
## 4   24C20   Fri shift2          1
## 5    6B60   Wed shift2          1
## 6   24C50   Sat shift1          1
## 7   10H20   Sun shift3          1
## 8   14D30   Wed shift1          1
## 9    2A30   Mon shift1          1
## 10   1A50   Wed shift1          1
## # ... with 1,464 more rows

#test
policeDataTest[-sample.tr,] 

## Source: local data frame [633 x 4]
## Groups: Beat, wday [458]
## 
##      Beat  wday  shift n_offenses
##    <fctr> <ord> <fctr>      <dbl>
## 1   10H10   Mon shift3          1
## 2   10H10   Wed shift1          1
## 3   10H10   Wed shift2          1
## 4   10H10   Wed shift3          1
## 5   10H10 Thurs shift2          1
## 6   10H20   Sun shift1          1
## 7   10H20   Mon shift3          1
## 8   10H20   Wed shift1          1
## 9   10H20   Wed shift2          1
## 10  10H20   Wed shift3          1
## # ... with 623 more rows
…
