…
        2402         8766            0 
> 
> 
> #####1.7- Quick analisys into the number of cases.
> (nrow(myData))
[1] 10252
> 
> 
> #####1.8- Checking the window time frame of the dataset.
> firstOcc <- min(myData$Date)
> lastOcc <- max(myData$Date)
> (timeframe <- lastOcc-firstOcc)
Time difference of 36551 days
> group_by(myData, Hour) %>% summarize(counts=sum(n_offenses, na.rm=TRUE)) %>% arrange(desc(counts))
# A tibble: 24 × 2
    Hour counts
   <dbl>  <dbl>
1     15    690
2     16    655
3     14    611
4     17    595
5     12    592
6     10    587
7     11    587
8      9    583
9     13    580
10    18    574
# ... with 14 more rows
…
4 2015-01-26    13        Theft 10H10   Restaurant or Cafeteria Parking Lot    100-199      PAIGE
5 2015-01-27    18        Theft 10H10 Multi-Plex Home (Duplex,Triplex Etc.)  5600-5699    SHERMAN
6 2015-01-27    18        Theft 10H10                    Residence or House        UNK    ESTELLE
# ... with 4 more variables: Type <chr>, Suffix <chr>, n_offenses <dbl>, na.rm <lgl>
> ng<-group_by(myData, Beat, na.rm=TRUE) %>% summarize(counts=sum(n_offenses, na.rm=TRUE)) %>% arrange(desc(counts))
> plot(ng)
Warning message:
In data.matrix(x) : NAs introduced by coercion
> myData[myData$Beat = NULL]
Error: unexpected '=' in "myData[myData$Beat ="
> myData[myData$Beat == NULL]
Error: Length of logical index vector must be 1 or 10, got: 0
> ng<-group_by(myData, Beat, na.rm=TRUE) %>% summarize(counts=sum(n_offenses, na.rm=TRUE)) %>% arrange(desc(counts))
> ng
Source: local data frame [116 x 3]
Groups: Beat [116]

    Beat na.rm counts
   <chr> <lgl>  <dbl>
1  12D10  TRUE    243
2   1A20  TRUE    231
3   6B60  TRUE    227
4  17E10  TRUE    214
5  18F20  TRUE    204
6  13D20  TRUE    200
7  19G10  TRUE    196
8   2A50  TRUE    191
9   3B10  TRUE    185
10  1A50  TRUE    179
# ... with 106 more rows
> ng<-group_by(myData, Beat) %>% summarize(counts=sum(n_offenses, na.rm=TRUE)) %>% arrange(desc(counts))
> ng
# A tibble: 116 × 2
    Beat counts
   <chr>  <dbl>
1  12D10    243
2   1A20    231
3   6B60    227
4  17E10    214
5  18F20    204
6  13D20    200
7  19G10    196
8   2A50    191
9   3B10    185
10  1A50    179
# ... with 106 more rows
> plot(ng)
Warning message:
In xy.coords(x, y, xlabel, ylabel, log) : NAs introduced by coercion
> ng
# A tibble: 116 × 2
    Beat counts
   <chr>  <dbl>
1  12D10    243
2   1A20    231
3   6B60    227
4  17E10    214
5  18F20    204
6  13D20    200
7  19G10    196
8   2A50    191
9   3B10    185
10  1A50    179
# ... with 106 more rows
…
